<?xml version="1.0" encoding="utf-8"?>
<!-- Generator: Adobe Illustrator 15.1.0, SVG Export Plug-In . SVG Version: 6.00 Build 0)  -->
<!DOCTYPE svg PUBLIC "-//W3C//DTD SVG 1.1//EN" "http://www.w3.org/Graphics/SVG/1.1/DTD/svg11.dtd">
<svg version="1.1" id="Capa_1" xmlns="http://www.w3.org/2000/svg" xmlns:xlink="http://www.w3.org/1999/xlink" x="0px" y="0px"
	 width="283px" height="283px" viewBox="0 0 283 283" enable-background="new 0 0 283 283" xml:space="preserve">
<path fill-rule="evenodd" clip-rule="evenodd" fill="#75A221" d="M127.395,94.9l-3.388,3.297c0.542,2.299,2.086,2.375,0.947,4.533
	c-0.896,1.695-1.25,2.882-1.745,5l-3.426,1.179l-0.007,4.792c0.907,0.604,2.116,0.719,3.121,1.15
	c1.14,0.489,0.561,0.569,1.502,2.733c0.486,1.116,1.307,1.82,0.931,2.779c-0.441,1.125-1.123,1.788-1.339,3.065l3.341,3.189
	c4.468-1.504,1.338-2.207,6.038-0.284c0.932,0.382,2.5,0.568,2.944,1.313c0.458,0.766,0.604,2.245,1.17,3.101l4.708,0.024
	c0.532-0.94,0.756-2.414,1.179-3.121c0.445-0.746,2.089-0.929,2.938-1.298c4.23-1.838,1.899-1.227,5.972,0.232
	c1.237-0.9,2.059-2.164,3.417-3.154c-0.297-1.334-0.934-1.875-1.288-2.926c-0.396-1.178,0.671-2.191,1.495-4.542
	c0.608-1.735,1.849-1.097,3.437-1.924c1.027-0.536,0.597-1.896,0.592-5.047c-1.049-0.568-2.608-0.708-3.35-1.407
	c-0.422-0.613-1.114-3.533-1.773-4.709c-1.366-2.434,0.447-2.084,0.847-4.645l-3.326-3.371c-0.753,0.349-1.372,0.652-2.156,1.048
	c-1.071,0.541-1.057,0.643-2.112,0.039c-1.641-0.94-2.762-0.995-4.472-1.752l-1.309-3.528l-4.772-0.012
	c-0.536,0.897-0.698,2.254-1.153,3.093c-0.483,0.891-2.188,1.032-3.08,1.401c-0.771,0.319-2.115,1.295-2.837,1.142
	C129.687,96.13,128.353,95.174,127.395,94.9z"/>
<path fill-rule="evenodd" clip-rule="evenodd" fill="#21255F" d="M178.2,194.065l-0.525-3.609l-8.721,0.92
	c-0.107,1.028,0.888,5.65,1.065,7.27c0.976,8.878,0.171,16.333-0.141,25.15l9.256-0.009c0-2-0.349-23.712,0.063-24.443
	c0.301-0.533,1.841-1.394,2.562-1.683c1.131-0.454,2.388-0.67,3.705-0.642c6.635,0.141,6.256,4.67,6.267,10.62
	c0.01,5.454-0.414,10.824-0.731,16.155h9.27c0.007-8.168-0.426-16.344-0.095-24.583c1.504-1.64,5.147-2.645,8.02-1.969
	c3.089,0.728,3.894,2.929,4.252,6.248c0.695,6.429-0.335,13.916-0.537,20.302l9.145,0.001c-0.003-4.926-0.159-9.879-0.161-14.809
	c-0.004-8.991,2.209-18.526-10.768-18.944c-6.635-0.215-9.745,3.523-11.211,4.025c-1.931-1.148-2.845-4.148-10.313-4.036
	C181.945,190.131,180.137,193.689,178.2,194.065z"/>
<path fill-rule="evenodd" clip-rule="evenodd" fill="#21255F" d="M50.083,225.128h4.838c1.202-0.547,6.478-1.035,10.174-4.904
	c0.513-0.537,0.512-0.613,0.977-1.042c2.763-2.549,4.303-7.642,4.271-12.662c-0.036-5.658-1.436-8.59-4.714-12.219
	c-2.407-2.664-7.18-4.72-12.222-4.656c-4.359,0.053-9.637,1.989-12.222,4.874c-1.585,1.77-2.425,2.196-3.65,4.879
	c-3.554,7.782-2.153,19.12,6.334,23.614C47.495,224.93,48.566,224.445,50.083,225.128z"/>
<path fill-rule="evenodd" clip-rule="evenodd" fill="#21255F" d="M139.569,191.577l-0.841,6.4c4.315-0.788,7.36-1.591,12.188-1.276
	c5.174,0.338,6.37,1.812,6.229,7.064c-5.007,0.485-9.165,0.312-13.508,2.397c-10.894,5.236-7.891,21.972,8.519,17.94
	c1.06-0.26,1.946-0.578,2.94-1.084c0.89-0.451,1.799-1.293,2.564-1.523l0.651,2.541l8.201-0.262
	c-0.753-5.429-1.143-8.808-0.998-14.566c0.23-9.174,1.92-18.676-11.665-19.163C148.252,189.846,144.577,190.458,139.569,191.577z"/>
<path fill-rule="evenodd" clip-rule="evenodd" fill="#75A221" d="M83.906,97.783c0.019,1.425,2.136,7.002,2.653,8.734
	c6.351-1.31,10.279-1.359,15.621,1.686c12.723,7.253,11.924,24.63,2.608,31.545c-3.909,2.902-4.704,2.484-6.17,3.546l2.68,8.548
	c2.769-0.241,7.623-3.545,9.316-4.924c19.249-15.671,10.208-47.01-13.964-50.235C93.082,96.208,86.909,96.349,83.906,97.783z"/>
<path fill-rule="evenodd" clip-rule="evenodd" fill="#75A221" d="M193.261,86.573c-0.726-0.763-6.544-4.997-7.351-5.226
	c-2.005,1.921-2.709,3.467-6.149,5.349c-17.161,9.39-35.245-9.344-26.376-25.931c0.401-0.75,0.952-1.343,1.24-2.217
	c-0.77-0.937-2.35-1.847-3.479-2.676c-0.856-0.629-2.894-2.268-3.797-2.601c-0.95,0.833-2.158,3.296-2.693,4.374
	c-10.135,20.441,8.104,45.027,31.385,40.14c4.128-0.867,6.986-2.17,10.01-4.122C187.879,92.482,192.621,88.56,193.261,86.573z"/>
<path fill-rule="evenodd" clip-rule="evenodd" fill="#75A221" d="M110.728,160.548l9.204,0.011
	c0.362-10.783,8.249-19.213,19.122-19.268c10.732-0.054,19.225,8.406,19.372,19.15l9.153,0.132
	c0.866-14.621-12.335-28.49-28.302-28.529C123.28,132.005,110.867,144.688,110.728,160.548z"/>
<path fill-rule="evenodd" clip-rule="evenodd" fill="#75A221" d="M178.288,153.773l2.91-8.626c-5.129-2.006-8.087-4.42-10.596-8.505
	c-7-11.401,0.024-26.829,13.617-28.889c1.509-0.229,3.081-0.245,4.615-0.136c1.609,0.113,2.908,0.664,4.25,0.715l2.829-8.497
	c-2.341-1.558-9.243-1.714-12.362-1.302c-4.256,0.562-7.423,1.775-10.598,3.558c-13.706,7.693-18.326,25.448-10.441,39.043
	C165.607,146.468,172.435,152.71,178.288,153.773z"/>
<path fill-rule="evenodd" clip-rule="evenodd" fill="#75A221" d="M134.851,53.168h-0.353c-0.897,1.032-5.581,3.899-7.11,5.381
	c0.974,2.152,2.025,2.835,2.948,6.468c2.01,7.914-1.046,15.89-7.236,20.396c-7.539,5.487-18.04,4.842-24.751-1.629
	c-0.695-0.67-1.55-1.927-2.34-2.503l-7.205,5.293c0.617,1.9,5.257,5.812,7.126,7.031c17.382,11.333,39.762,1.327,43.666-17.957
	c1.237-6.114,0.519-12.427-2.143-17.959C136.603,55.924,135.558,54.579,134.851,53.168z"/>
<path fill-rule="evenodd" clip-rule="evenodd" fill="#21255F" d="M272.227,223.793v-24.715c-0.375-0.901-0.454-2.38-0.922-3.516
	c-2.518-6.103-11.284-6.374-16.225-4.628c-1.168,0.412-2.05,0.846-3.014,1.474c-1.829,1.192-1.68,1.533-2.767,1.572l-0.59-3.38
	c-1.246-0.449-6.839,0.584-8.69,0.771c-0.1,0.919,0.923,5.918,1.099,7.495c0.988,8.881,0.053,16.158-0.169,24.931l9.291-0.053
	l-0.181-23.951c2.586-2.558,12.478-6.038,13.604,3.182c0.57,4.668,0.088,16.104-0.59,20.811L272.227,223.793z"/>
<path fill-rule="evenodd" clip-rule="evenodd" fill="#21255F" d="M81.594,194.067l-0.541-3.511
	c-1.783-0.197-6.647,0.629-8.738,0.805c-0.085,0.934,0.914,5.705,1.102,7.304c0.839,7.152,0.325,17.993-0.167,25.122l9.309,0.009
	l-0.164-24.147c3.508-2.846,12.366-5.372,13.555,3.116c0.902,6.44-0.38,14.515-0.501,21.03l9.14-0.002
	c-0.008-5.013-0.171-10.031-0.168-15.032c0.002-4.748,0.843-9.801-1.08-13.835c-2.743-5.754-13.168-6.362-19.24-2.336
	C83.12,193.239,82.808,193.865,81.594,194.067z"/>
<path fill-rule="evenodd" clip-rule="evenodd" fill="#21255F" d="M7.449,205.781v4.696c0.559,1.19,0.717,2.905,1.253,4.196
	c1.413,3.396,4.166,6.56,7.678,8.245c4.076,1.957,13.969,2.954,17.793,0.232c0.521-1.183,0.648-4.985,0.675-6.566
	c-4.237,0.717-8.023,2.473-12.505,0.364c-8.995-4.232-8.081-21.065,4.276-20.205c2.259,0.157,4.443,1.07,5.827,1.155l1.069-6.85
	c-2.116-1.229-6.873-1.175-9.493-0.979c-6.389,0.477-10.296,3.099-13.69,7.897C7.937,201.358,8.125,204.136,7.449,205.781z"/>
<path fill-rule="evenodd" clip-rule="evenodd" fill="#21255F" d="M134.685,223.036l0.577-6.477
	c-4.381,0.868-7.801,2.354-12.348,0.487c-7.319-3.005-8.281-14.738-1.961-18.992c3.605-2.427,8.052-1.122,11.829-0.084
	c0.275-1.492,1.172-5.808,1.061-7.082c-6.474-1.353-13.373-1.354-18.375,2.134c-10.955,7.64-9.637,24.035,0.454,29.463
	C120.172,224.773,130.504,226.167,134.685,223.036z"/>
<path fill-rule="evenodd" clip-rule="evenodd" fill="#FFFFFF" d="M51.924,196.162c-10.906,1.894-8.722,24.368,2.427,22.507
	C64.887,216.909,62.933,194.251,51.924,196.162z"/>
<path fill-rule="evenodd" clip-rule="evenodd" fill="#21255F" d="M225.504,191.465c1.944,16.453,0.776,17.238,0.707,32.326
	l9.264,0.004c-0.366-8.131-0.611-16.915-0.394-25.125c0.058-2.179,0.493-6.301,0.267-8.194L225.504,191.465z"/>
<path fill-rule="evenodd" clip-rule="evenodd" fill="#FFFFFF" d="M139.017,104.863c-7.864,1.249-6.096,12.875,1.816,11.74
	c2.929-0.42,5.479-3.351,4.9-6.894C145.267,106.849,142.44,104.319,139.017,104.863z"/>
<path fill-rule="evenodd" clip-rule="evenodd" fill="#FFFFFF" d="M156.989,208.745c-2.762-0.403-7.071,0.468-9.101,1.681
	c-3.304,1.976-2.749,6.056-1.108,7.191c2.25,1.559,6.319,1.052,8.757,0.006c2.206-0.946,1.765-1.225,1.673-3.705
	C157.149,212.301,157.43,210.216,156.989,208.745z"/>
</svg>
